diggingHappyAnalyses
…
Warning in cor.test.default(summary_data$mean_RawHappy,
summary_data$GAD_score, : Cannot compute exact p-value with ties

Warning in cor.test.default(summary_data$sd_RawHappy, summary_data$PHQ_score, :
Cannot compute exact p-value with ties

Warning in cor.test.default(summary_data$sd_RawHappy, summary_data$GAD_score, :
Cannot compute exact p-value with ties

print(result_gain_young_one)

$summary_data
# A tibble: 960 × 5
   userKey      mean_RawHappy sd_RawHappy GAD_score PHQ_score
   <chr>                <dbl>       <dbl>     <dbl>     <dbl>
 1 bemndoabkyxz         0.5        0              5         5
 2 bemndoagypxz         0.687      0             21        24
 3 bemndoamlyxz         0.620      0.0656         4         3
 4 bemndoaoawxz         0.609      0.109         11        19
 5 bemndoaqekxz         0.438      0.0786        18        23
 6 bemndoarpdxz         0.608      0.246         12         5
 7 bemndoeakpxz         0.249      0.0237        16        19
 8 bemndoejgqxz         0.567      0.0286         1         6
 9 bemndoeqjyxz         0.640      0.0775         4         4
10 bemndoewozxz         0.843      0.0226        17        16
# ℹ 950 more rows
…
Warning in cor.test.default(summary_data$mean_RawHappy,
summary_data$GAD_score, : Cannot compute exact p-value with ties

Warning in cor.test.default(summary_data$sd_RawHappy, summary_data$PHQ_score, :
Cannot compute exact p-value with ties

Warning in cor.test.default(summary_data$sd_RawHappy, summary_data$GAD_score, :
Cannot compute exact p-value with ties

print(result_gain_older_one)

$summary_data
# A tibble: 1,333 × 5
   userKey      mean_RawHappy sd_RawHappy GAD_score PHQ_score
   <chr>                <dbl>       <dbl>     <dbl>     <dbl>
 1 bemndoaeodxz         0.547     0.0778         10         9
 2 bemndoaeqvxz         0.277     0.0104         14        19
 3 bemndoagepxz         0.478     0.0159          5        19
 4 bemndoajobxz         0.501     0.00213        18        16
 5 bemndoaklexz         0.512     0.0512          7         6
 6 bemndoampexz         0.564     0.00989         9        10
 7 bemndoamqexz         0.465     0.316          18        18
 8 bemndoaqllxz         0.498     0.00338        20        18
 9 bemndoaqmkxz         0.671     0.263           3         8
10 bemndoarkbxz         0.479     0.0136          3         7
# ℹ 1,323 more rows
…
Warning in cor.test.default(summary_data$mean_RawHappy,
summary_data$GAD_score, : Cannot compute exact p-value with ties

Warning in cor.test.default(summary_data$sd_RawHappy, summary_data$PHQ_score, :
Cannot compute exact p-value with ties

Warning in cor.test.default(summary_data$sd_RawHappy, summary_data$GAD_score, :
Cannot compute exact p-value with ties

print(result_loss_young_one)

$summary_data
# A tibble: 960 × 5
   userKey      mean_RawHappy sd_RawHappy GAD_score PHQ_score
   <chr>                <dbl>       <dbl>     <dbl>     <dbl>
 1 bemndoabkyxz         0.470      0.0592         5         5
 2 bemndoagypxz         0.511      0.257         21        24
 3 bemndoamlyxz         0.268      0.176          4         3
 4 bemndoaoawxz         0.340      0.129         11        19
 5 bemndoaqekxz         0.400      0.113         18        23
 6 bemndoarpdxz         0.390      0.200         12         5
 7 bemndoeakpxz         0.252      0.0250        16        19
 8 bemndoejgqxz         0.589      0.0700         1         6
 9 bemndoeqjyxz         0.368      0.0551         4         4
10 bemndoewozxz         0.776      0.0350        17        16
# ℹ 950 more rows
…
Warning in cor.test.default(summary_data$mean_RawHappy,
summary_data$GAD_score, : Cannot compute exact p-value with ties

Warning in cor.test.default(summary_data$sd_RawHappy, summary_data$PHQ_score, :
Cannot compute exact p-value with ties

Warning in cor.test.default(summary_data$sd_RawHappy, summary_data$GAD_score, :
Cannot compute exact p-value with ties

print(result_loss_older_one)

$summary_data
# A tibble: 1,333 × 5
   userKey      mean_RawHappy sd_RawHappy GAD_score PHQ_score
   <chr>                <dbl>       <dbl>     <dbl>     <dbl>
 1 bemndoaeodxz         0.5      0               10         9
 2 bemndoaeqvxz         0.497    0.244           14        19
 3 bemndoagepxz         0.493    0.0104           5        19
 4 bemndoajobxz         0.503    0.00639         18        16
 5 bemndoaklexz         0.436    0.0501           7         6
 6 bemndoampexz         0.471    0.0704           9        10
 7 bemndoamqexz         0.970    0.0488          18        18
 8 bemndoaqllxz         0.500    0.000426        20        18
 9 bemndoaqmkxz         0.582    0.321            3         8
10 bemndoarkbxz         0.486    0.0257           3         7
# ℹ 1,323 more rows
…
Warning in cor.test.default(summary_data$mean_RawHappy,
summary_data$GAD_score, : Cannot compute exact p-value with ties

Warning in cor.test.default(summary_data$sd_RawHappy, summary_data$PHQ_score, :
Cannot compute exact p-value with ties

Warning in cor.test.default(summary_data$sd_RawHappy, summary_data$GAD_score, :
Cannot compute exact p-value with ties

print(result_overall_young_one)

$summary_data
# A tibble: 960 × 5
   userKey      mean_RawHappy sd_RawHappy GAD_score PHQ_score
   <chr>                <dbl>       <dbl>     <dbl>     <dbl>
 1 bemndoabkyxz         0.485      0.0438         5         5
 2 bemndoagypxz         0.575      0.218         21        24
 3 bemndoamlyxz         0.444      0.222          4         3
 4 bemndoaoawxz         0.474      0.180         11        19
 5 bemndoaqekxz         0.419      0.0976        18        23
 6 bemndoarpdxz         0.499      0.246         12         5
 7 bemndoeakpxz         0.251      0.0239        16        19
 8 bemndoejgqxz         0.578      0.0536         1         6
 9 bemndoeqjyxz         0.459      0.145          4         4
10 bemndoewozxz         0.810      0.0445        17        16
# ℹ 950 more rows
…
Warning in cor.test.default(summary_data$mean_RawHappy,
summary_data$GAD_score, : Cannot compute exact p-value with ties

Warning in cor.test.default(summary_data$sd_RawHappy, summary_data$PHQ_score, :
Cannot compute exact p-value with ties

Warning in cor.test.default(summary_data$sd_RawHappy, summary_data$GAD_score, :
Cannot compute exact p-value with ties

print(result_overall_older_one)

$summary_data
# A tibble: 1,333 × 5
   userKey      mean_RawHappy sd_RawHappy GAD_score PHQ_score
   <chr>                <dbl>       <dbl>     <dbl>     <dbl>
 1 bemndoaeodxz         0.524     0.0592         10         9
 2 bemndoaeqvxz         0.431     0.227          14        19
 3 bemndoagepxz         0.485     0.0153          5        19
 4 bemndoajobxz         0.502     0.00480        18        16
 5 bemndoaklexz         0.474     0.0632          7         6
 6 bemndoampexz         0.517     0.0684          9        10
 7 bemndoamqexz         0.718     0.340          18        18
 8 bemndoaqllxz         0.499     0.00234        20        18
 9 bemndoaqmkxz         0.626     0.292           3         8
10 bemndoarkbxz         0.483     0.0205          3         7
# ℹ 1,323 more rows
…
Warning in cor.test.default(summary_data$mean_RawHappy,
summary_data$GAD_score, : Cannot compute exact p-value with ties

Warning in cor.test.default(summary_data$sd_RawHappy, summary_data$PHQ_score, :
Cannot compute exact p-value with ties

Warning in cor.test.default(summary_data$sd_RawHappy, summary_data$GAD_score, :
Cannot compute exact p-value with ties

print(result_gain_young_multi)

$summary_data
# A tibble: 286 × 5
   userKey      mean_RawHappy sd_RawHappy GAD_score PHQ_score
   <chr>                <dbl>       <dbl>     <dbl>     <dbl>
 1 bemndoarpdxz         0.765      0.104         12         5
 2 bemndoeqjyxz         0.592      0.115          4         4
 3 bemndzbgkynz         0.465      0.190         14        13
 4 bemndzqmyknz         0.381      0.332          7        14
 5 bemndzyrgqnz         0.582      0.105          2         2
 6 bemxdoadapnz         0.540      0.0665         8        11
 7 bemxdoadbpnz         0.438      0.126         21        22
 8 bemxdoadoqnz         0.461      0.109         12        23
 9 bemxdoarabnz         0.477      0.143          7        12
10 bemxdoawwznz         0.497      0.109         18        24
# ℹ 276 more rows
…
Warning in cor.test.default(summary_data$mean_RawHappy,
summary_data$GAD_score, : Cannot compute exact p-value with ties

Warning in cor.test.default(summary_data$sd_RawHappy, summary_data$PHQ_score, :
Cannot compute exact p-value with ties

Warning in cor.test.default(summary_data$sd_RawHappy, summary_data$GAD_score, :
Cannot compute exact p-value with ties

print(result_gain_older_multi)

$summary_data
# A tibble: 512 × 5
   userKey      mean_RawHappy sd_RawHappy GAD_score PHQ_score
   <chr>                <dbl>       <dbl>     <dbl>     <dbl>
 1 bemndoawgrxz         0.994      0.0147        11        11
 2 bemndoekrgxz         0.992      0.0127         0         1
 3 bemndoeqpyxz         0.442      0.209          2         4
 4 bemndzbgjonz         0.537      0.133         13        11
 5 bemndzbgolnz         0.289      0.467          6         5
 6 bemndzbjepnz         0.545      0.103          4         8
 7 bemndzbljenz         0.750      0.0829         1         2
 8 bemndzbodqnz         0.535      0.0475         7         5
 9 bemndzbqwmnz         0.548      0.0222         1         2
10 bemndzbrlanz         0.654      0.0849         5         2
# ℹ 502 more rows
…
Warning in cor.test.default(summary_data$mean_RawHappy,
summary_data$GAD_score, : Cannot compute exact p-value with ties

Warning in cor.test.default(summary_data$sd_RawHappy, summary_data$PHQ_score, :
Cannot compute exact p-value with ties

Warning in cor.test.default(summary_data$sd_RawHappy, summary_data$GAD_score, :
Cannot compute exact p-value with ties

print(result_loss_young_multi)

$summary_data
# A tibble: 286 × 5
   userKey      mean_RawHappy sd_RawHappy GAD_score PHQ_score
   <chr>                <dbl>       <dbl>     <dbl>     <dbl>
 1 bemndoarpdxz         0.701      0.111         12         5
 2 bemndoeqjyxz         0.268      0.0350         4         4
 3 bemndzbgkynz         0.583      0.174         14        13
 4 bemndzqmyknz         0          0              7        14
 5 bemndzyrgqnz         0.583      0.0660         2         2
 6 bemxdoadapnz         0.487      0.0805         8        11
 7 bemxdoadbpnz         0.305      0.206         21        22
 8 bemxdoadoqnz         0.432      0.111         12        23
 9 bemxdoarabnz         0.458      0.106          7        12
10 bemxdoawwznz         0.506      0.0176        18        24
# ℹ 276 more rows
…
Warning in cor.test.default(summary_data$mean_RawHappy,
summary_data$GAD_score, : Cannot compute exact p-value with ties

Warning in cor.test.default(summary_data$sd_RawHappy, summary_data$PHQ_score, :
Cannot compute exact p-value with ties

Warning in cor.test.default(summary_data$sd_RawHappy, summary_data$GAD_score, :
Cannot compute exact p-value with ties

print(result_loss_older_multi)

$summary_data
# A tibble: 512 × 5
   userKey      mean_RawHappy sd_RawHappy GAD_score PHQ_score
   <chr>                <dbl>       <dbl>     <dbl>     <dbl>
 1 bemndoawgrxz       0.985       0.0166         11        11
 2 bemndoekrgxz       0.992       0.0107          0         1
 3 bemndoeqpyxz       0.579       0.0637          2         4
 4 bemndzbgjonz       0.368       0.235          13        11
 5 bemndzbgolnz       0.00429     0.00703         6         5
 6 bemndzbjepnz       0.226       0.253           4         8
 7 bemndzbljenz       0.667       0.202           1         2
 8 bemndzbodqnz       0.493       0.0813          7         5
 9 bemndzbqwmnz       0.488       0.0295          1         2
10 bemndzbrlanz       0.617       0.0633          5         2
# ℹ 502 more rows
…
Warning in cor.test.default(summary_data$mean_RawHappy,
summary_data$GAD_score, : Cannot compute exact p-value with ties

Warning in cor.test.default(summary_data$sd_RawHappy, summary_data$PHQ_score, :
Cannot compute exact p-value with ties

Warning in cor.test.default(summary_data$sd_RawHappy, summary_data$GAD_score, :
Cannot compute exact p-value with ties

print(result_overall_young_multi)

$summary_data
# A tibble: 286 × 5
   userKey      mean_RawHappy sd_RawHappy GAD_score PHQ_score
   <chr>                <dbl>       <dbl>     <dbl>     <dbl>
 1 bemndoarpdxz         0.733      0.110         12         5
 2 bemndoeqjyxz         0.430      0.185          4         4
 3 bemndzbgkynz         0.517      0.189         14        13
 4 bemndzqmyknz         0.213      0.311          7        14
 5 bemndzyrgqnz         0.582      0.0867         2         2
 6 bemxdoadapnz         0.514      0.0779         8        11
 7 bemxdoadbpnz         0.360      0.186         21        22
 8 bemxdoadoqnz         0.446      0.109         12        23
 9 bemxdoarabnz         0.468      0.125          7        12
10 bemxdoawwznz         0.502      0.0769        18        24
# ℹ 276 more rows
…
Warning in cor.test.default(summary_data$mean_RawHappy,
summary_data$GAD_score, : Cannot compute exact p-value with ties

Warning in cor.test.default(summary_data$sd_RawHappy, summary_data$PHQ_score, :
Cannot compute exact p-value with ties

Warning in cor.test.default(summary_data$sd_RawHappy, summary_data$GAD_score, :
Cannot compute exact p-value with ties

print(result_overall_older_multi)

$summary_data
# A tibble: 512 × 5
   userKey      mean_RawHappy sd_RawHappy GAD_score PHQ_score
   <chr>                <dbl>       <dbl>     <dbl>     <dbl>
 1 bemndoawgrxz         0.990      0.0162        11        11
 2 bemndoekrgxz         0.992      0.0115         0         1
 3 bemndoeqpyxz         0.510      0.167          2         4
 4 bemndzbgjonz         0.453      0.208         13        11
 5 bemndzbgolnz         0.147      0.355          6         5
 6 bemndzbjepnz         0.386      0.250          4         8
 7 bemndzbljenz         0.705      0.163          1         2
 8 bemndzbodqnz         0.514      0.0692         7         5
 9 bemndzbqwmnz         0.518      0.0397         1         2
10 bemndzbrlanz         0.635      0.0760         5         2
# ℹ 502 more rows
…
Warning in cor.test.default(summary_data$mean_RawHappy,
summary_data$GAD_score, : Cannot compute exact p-value with ties

Warning in cor.test.default(summary_data$sd_RawHappy, summary_data$PHQ_score, :
Cannot compute exact p-value with ties

Warning in cor.test.default(summary_data$sd_RawHappy, summary_data$GAD_score, :
Cannot compute exact p-value with ties

print(result_gain_f)

$summary_data
# A tibble: 1,774 × 5
   userKey      mean_RawHappy sd_RawHappy GAD_score PHQ_score
   <chr>                <dbl>       <dbl>     <dbl>     <dbl>
 1 bemndoaeodxz         0.547     0.0778         10         9
 2 bemndoaeqvxz         0.277     0.0104         14        19
 3 bemndoagepxz         0.478     0.0159          5        19
 4 bemndoagypxz         0.687     0              21        24
 5 bemndoaklexz         0.512     0.0512          7         6
 6 bemndoampexz         0.564     0.00989         9        10
 7 bemndoamqexz         0.465     0.316          18        18
 8 bemndoaqllxz         0.498     0.00338        20        18
 9 bemndoaqmkxz         0.671     0.263           3         8
10 bemndoarpdxz         0.608     0.246          12         5
# ℹ 1,764 more rows
…
Warning in cor.test.default(summary_data$mean_RawHappy,
summary_data$GAD_score, : Cannot compute exact p-value with ties

Warning in cor.test.default(summary_data$sd_RawHappy, summary_data$PHQ_score, :
Cannot compute exact p-value with ties

Warning in cor.test.default(summary_data$sd_RawHappy, summary_data$GAD_score, :
Cannot compute exact p-value with ties

print(result_gain_m)

$summary_data
# A tibble: 415 × 5
   userKey      mean_RawHappy sd_RawHappy GAD_score PHQ_score
   <chr>                <dbl>       <dbl>     <dbl>     <dbl>
 1 bemndoabkyxz         0.5       0               5         5
 2 bemndoajobxz         0.501     0.00213        18        16
 3 bemndoamlyxz         0.620     0.0656          4         3
 4 bemndoaoawxz         0.609     0.109          11        19
 5 bemndoaqekxz         0.438     0.0786         18        23
 6 bemndoarkbxz         0.479     0.0136          3         7
 7 bemndoewpzxz         0.568     0.00887        11        10
 8 bemndoewwdxz         0.5       0               6         5
 9 bemndoyzloxz         0.306     0.0354          1        15
10 bemndzbgkynz         0.657     0.138          14        13
# ℹ 405 more rows
…
Warning in cor.test.default(summary_data$mean_RawHappy,
summary_data$GAD_score, : Cannot compute exact p-value with ties

Warning in cor.test.default(summary_data$sd_RawHappy, summary_data$PHQ_score, :
Cannot compute exact p-value with ties

Warning in cor.test.default(summary_data$sd_RawHappy, summary_data$GAD_score, :
Cannot compute exact p-value with ties

print(result_loss_f)

$summary_data
# A tibble: 1,774 × 5
   userKey      mean_RawHappy sd_RawHappy GAD_score PHQ_score
   <chr>                <dbl>       <dbl>     <dbl>     <dbl>
 1 bemndoaeodxz         0.5      0               10         9
 2 bemndoaeqvxz         0.497    0.244           14        19
 3 bemndoagepxz         0.493    0.0104           5        19
 4 bemndoagypxz         0.511    0.257           21        24
 5 bemndoaklexz         0.436    0.0501           7         6
 6 bemndoampexz         0.471    0.0704           9        10
 7 bemndoamqexz         0.970    0.0488          18        18
 8 bemndoaqllxz         0.500    0.000426        20        18
 9 bemndoaqmkxz         0.582    0.321            3         8
10 bemndoarpdxz         0.390    0.200           12         5
# ℹ 1,764 more rows
…
Warning in cor.test.default(summary_data$mean_RawHappy,
summary_data$GAD_score, : Cannot compute exact p-value with ties

Warning in cor.test.default(summary_data$sd_RawHappy, summary_data$PHQ_score, :
Cannot compute exact p-value with ties

Warning in cor.test.default(summary_data$sd_RawHappy, summary_data$GAD_score, :
Cannot compute exact p-value with ties

print(result_loss_m)

$summary_data
# A tibble: 415 × 5
   userKey      mean_RawHappy sd_RawHappy GAD_score PHQ_score
   <chr>                <dbl>       <dbl>     <dbl>     <dbl>
 1 bemndoabkyxz         0.470     0.0592          5         5
 2 bemndoajobxz         0.503     0.00639        18        16
 3 bemndoamlyxz         0.268     0.176           4         3
 4 bemndoaoawxz         0.340     0.129          11        19
 5 bemndoaqekxz         0.400     0.113          18        23
 6 bemndoarkbxz         0.486     0.0257          3         7
 7 bemndoewpzxz         0.513     0.0959         11        10
 8 bemndoewwdxz         0.524     0.0338          6         5
 9 bemndoyzloxz         0.303     0.0370          1        15
10 bemndzbgkynz         0.463     0.104          14        13
# ℹ 405 more rows
…
